[
    {
        "name": "Big Corporation", 
        "numberOfEmployees": 10000,
        "ceo": "Mary",
        "rating": 3.6,
        "branches": ["Dhaka", "Sylhet"]
    },

    {
        "name": "Small Startup", 
        "numberOfEmployees": 300,
        "ceo": null,
        "rating": 4.3
    }

]